{
    "total_results": 2735, 
    "per_page": 6, 
    "next_page": "https://api.pexels.com/v1/search/?page=2&per_page=6&query=laptop", 
    "page": 1, 
    "photos": [
      {
        "photographer_id": 2662, 
        "src": {
          "medium": "https://images.pexels.com/photos/238118/pexels-photo-238118.jpeg?auto=compress&cs=tinysrgb&h=350", 
          "tiny": "https://images.pexels.com/photos/238118/pexels-photo-238118.jpeg?auto=compress&cs=tinysrgb&dpr=1&fit=crop&h=200&w=280", 
          "large": "https://images.pexels.com/photos/238118/pexels-photo-238118.jpeg?auto=compress&cs=tinysrgb&h=650&w=940", 
          "small": "https://images.pexels.com/photos/238118/pexels-photo-238118.jpeg?auto=compress&cs=tinysrgb&h=130", 
          "large2x": "https://images.pexels.com/photos/238118/pexels-photo-238118.jpeg?auto=compress&cs=tinysrgb&dpr=2&h=650&w=940", 
          "portrait": "https://images.pexels.com/photos/238118/pexels-photo-238118.jpeg?auto=compress&cs=tinysrgb&fit=crop&h=1200&w=800", 
          "original": "https://images.pexels.com/photos/238118/pexels-photo-238118.jpeg", 
          "landscape": "https://images.pexels.com/photos/238118/pexels-photo-238118.jpeg?auto=compress&cs=tinysrgb&fit=crop&h=627&w=1200"
        }, 
        "liked": false, 
        "url": "https://www.pexels.com/photo/computer-desk-electronics-keyboard-238118/", 
        "photographer": "J\u00c9SHOOTS", 
        "photographer_url": "https://www.pexels.com/@jeshoots", 
        "height": 2682, 
        "width": 4000, 
        "id": 238118
      }, 
      {
        "photographer_id": 55570, 
        "src": {
          "medium": "https://images.pexels.com/photos/461077/pexels-photo-461077.jpeg?auto=compress&cs=tinysrgb&h=350", 
          "tiny": "https://images.pexels.com/photos/461077/pexels-photo-461077.jpeg?auto=compress&cs=tinysrgb&dpr=1&fit=crop&h=200&w=280", 
          "large": "https://images.pexels.com/photos/461077/pexels-photo-461077.jpeg?auto=compress&cs=tinysrgb&h=650&w=940", 
          "small": "https://images.pexels.com/photos/461077/pexels-photo-461077.jpeg?auto=compress&cs=tinysrgb&h=130", 
          "large2x": "https://images.pexels.com/photos/461077/pexels-photo-461077.jpeg?auto=compress&cs=tinysrgb&dpr=2&h=650&w=940", 
          "portrait": "https://images.pexels.com/photos/461077/pexels-photo-461077.jpeg?auto=compress&cs=tinysrgb&fit=crop&h=1200&w=800", 
          "original": "https://images.pexels.com/photos/461077/pexels-photo-461077.jpeg", 
          "landscape": "https://images.pexels.com/photos/461077/pexels-photo-461077.jpeg?auto=compress&cs=tinysrgb&fit=crop&h=627&w=1200"
        }, 
        "liked": false, 
        "url": "https://www.pexels.com/photo/ballpen-blur-close-up-computer-461077/", 
        "photographer": "picjumbo.com", 
        "photographer_url": "https://www.pexels.com/@picjumbo-com-55570", 
        "height": 2667, 
        "width": 4000, 
        "id": 461077
      }, 
      {
        "photographer_id": 121963, 
        "src": {
          "medium": "https://images.pexels.com/photos/374074/pexels-photo-374074.jpeg?auto=compress&cs=tinysrgb&h=350", 
          "tiny": "https://images.pexels.com/photos/374074/pexels-photo-374074.jpeg?auto=compress&cs=tinysrgb&dpr=1&fit=crop&h=200&w=280", 
          "large": "https://images.pexels.com/photos/374074/pexels-photo-374074.jpeg?auto=compress&cs=tinysrgb&h=650&w=940", 
          "small": "https://images.pexels.com/photos/374074/pexels-photo-374074.jpeg?auto=compress&cs=tinysrgb&h=130", 
          "large2x": "https://images.pexels.com/photos/374074/pexels-photo-374074.jpeg?auto=compress&cs=tinysrgb&dpr=2&h=650&w=940", 
          "portrait": "https://images.pexels.com/photos/374074/pexels-photo-374074.jpeg?auto=compress&cs=tinysrgb&fit=crop&h=1200&w=800", 
          "original": "https://images.pexels.com/photos/374074/pexels-photo-374074.jpeg", 
          "landscape": "https://images.pexels.com/photos/374074/pexels-photo-374074.jpeg?auto=compress&cs=tinysrgb&fit=crop&h=627&w=1200"
        }, 
        "liked": false, 
        "url": "https://www.pexels.com/photo/computer-desk-electronics-indoors-374074/", 
        "photographer": "Burst", 
        "photographer_url": "https://www.pexels.com/@burst", 
        "height": 3840, 
        "width": 5760, 
        "id": 374074
      }, 
      {
        "photographer_id": 162689, 
        "src": {
          "medium": "https://images.pexels.com/photos/1229861/pexels-photo-1229861.jpeg?auto=compress&cs=tinysrgb&h=350", 
          "tiny": "https://images.pexels.com/photos/1229861/pexels-photo-1229861.jpeg?auto=compress&cs=tinysrgb&dpr=1&fit=crop&h=200&w=280", 
          "large": "https://images.pexels.com/photos/1229861/pexels-photo-1229861.jpeg?auto=compress&cs=tinysrgb&h=650&w=940", 
          "small": "https://images.pexels.com/photos/1229861/pexels-photo-1229861.jpeg?auto=compress&cs=tinysrgb&h=130", 
          "large2x": "https://images.pexels.com/photos/1229861/pexels-photo-1229861.jpeg?auto=compress&cs=tinysrgb&dpr=2&h=650&w=940", 
          "portrait": "https://images.pexels.com/photos/1229861/pexels-photo-1229861.jpeg?auto=compress&cs=tinysrgb&fit=crop&h=1200&w=800", 
          "original": "https://images.pexels.com/photos/1229861/pexels-photo-1229861.jpeg", 
          "landscape": "https://images.pexels.com/photos/1229861/pexels-photo-1229861.jpeg?auto=compress&cs=tinysrgb&fit=crop&h=627&w=1200"
        }, 
        "liked": false, 
        "url": "https://www.pexels.com/photo/silver-and-black-laptop-computer-1229861/", 
        "photographer": "Hasan Albari", 
        "photographer_url": "https://www.pexels.com/@hasanalbari", 
        "height": 4000, 
        "width": 6000, 
        "id": 1229861
      }, 
      {
        "photographer_id": 1540, 
        "src": {
          "medium": "https://images.pexels.com/photos/18105/pexels-photo.jpg?auto=compress&cs=tinysrgb&h=350", 
          "tiny": "https://images.pexels.com/photos/18105/pexels-photo.jpg?auto=compress&cs=tinysrgb&dpr=1&fit=crop&h=200&w=280", 
          "large": "https://images.pexels.com/photos/18105/pexels-photo.jpg?auto=compress&cs=tinysrgb&h=650&w=940", 
          "small": "https://images.pexels.com/photos/18105/pexels-photo.jpg?auto=compress&cs=tinysrgb&h=130", 
          "large2x": "https://images.pexels.com/photos/18105/pexels-photo.jpg?auto=compress&cs=tinysrgb&dpr=2&h=650&w=940", 
          "portrait": "https://images.pexels.com/photos/18105/pexels-photo.jpg?auto=compress&cs=tinysrgb&fit=crop&h=1200&w=800", 
          "original": "https://images.pexels.com/photos/18105/pexels-photo.jpg", 
          "landscape": "https://images.pexels.com/photos/18105/pexels-photo.jpg?auto=compress&cs=tinysrgb&fit=crop&h=627&w=1200"
        }, 
        "liked": false, 
        "url": "https://www.pexels.com/photo/laptop-macbook-pro-office-computer-18105/", 
        "photographer": "karsten madsen", 
        "photographer_url": "https://www.pexels.com/@morningtrain", 
        "height": 3456, 
        "width": 5184, 
        "id": 18105
      }, 
      {
        "photographer_id": 3738, 
        "src": {
          "medium": "https://images.pexels.com/photos/34088/pexels-photo.jpg?auto=compress&cs=tinysrgb&h=350", 
          "tiny": "https://images.pexels.com/photos/34088/pexels-photo.jpg?auto=compress&cs=tinysrgb&dpr=1&fit=crop&h=200&w=280", 
          "large": "https://images.pexels.com/photos/34088/pexels-photo.jpg?auto=compress&cs=tinysrgb&h=650&w=940", 
          "small": "https://images.pexels.com/photos/34088/pexels-photo.jpg?auto=compress&cs=tinysrgb&h=130", 
          "large2x": "https://images.pexels.com/photos/34088/pexels-photo.jpg?auto=compress&cs=tinysrgb&dpr=2&h=650&w=940", 
          "portrait": "https://images.pexels.com/photos/34088/pexels-photo.jpg?auto=compress&cs=tinysrgb&fit=crop&h=1200&w=800", 
          "original": "https://images.pexels.com/photos/34088/pexels-photo.jpg", 
          "landscape": "https://images.pexels.com/photos/34088/pexels-photo.jpg?auto=compress&cs=tinysrgb&fit=crop&h=627&w=1200"
        }, 
        "liked": false, 
        "url": "https://www.pexels.com/photo/iphone-notebook-pen-working-34088/", 
        "photographer": "Negative Space", 
        "photographer_url": "https://www.pexels.com/@negativespace", 
        "height": 3648, 
        "width": 5472, 
        "id": 34088
      }
    ]
  }